<svg width="224" height="153" viewBox="0 0 224 153" fill="none" xmlns="http://www.w3.org/2000/svg">
<rect width="224" height="153" rx="10" fill="#FBA964"/>
<path d="M6 7L117 71" stroke="#9D91CD" stroke-width="10" stroke-linecap="round"/>
<path d="M218 7L117 71" stroke="#9D91CD" stroke-width="10" stroke-linecap="round"/>
<path d="M56.776 112.936C54.6853 112.936 52.808 112.52 51.144 111.688C49.5013 110.835 48.2 109.576 47.24 107.912C46.28 106.227 45.8 104.168 45.8 101.736C45.8 99.7733 46.248 97.9387 47.144 96.232C48.04 94.5253 49.2773 93.16 50.856 92.136C52.4347 91.112 54.2053 90.6 56.168 90.6C58.024 90.6 59.6773 90.952 61.128 91.656C62.5787 92.3387 63.6987 93.2773 64.488 94.472C65.2987 95.6667 65.704 97 65.704 98.472C65.704 99.4107 65.4267 100.221 64.872 100.904C64.3387 101.587 63.5707 101.928 62.568 101.928C61.8213 101.928 61.2453 101.8 60.84 101.544C60.4347 101.288 60.008 100.893 59.56 100.36C59.112 99.8267 58.6747 99.432 58.248 99.176C57.8427 98.8987 57.2453 98.76 56.456 98.76C55.4533 98.76 54.5893 99.144 53.864 99.912C53.16 100.659 52.808 101.576 52.808 102.664C52.808 103.837 53.1067 104.829 53.704 105.64C54.3227 106.429 55.1547 106.824 56.2 106.824C57.0107 106.824 57.6507 106.707 58.12 106.472C58.6107 106.237 59.1227 105.896 59.656 105.448C60.104 105.064 60.5093 104.776 60.872 104.584C61.256 104.392 61.7253 104.296 62.28 104.296C63.1333 104.296 63.8053 104.563 64.296 105.096C64.7867 105.608 65.032 106.28 65.032 107.112C65.032 108.093 64.6693 109.032 63.944 109.928C63.24 110.824 62.2587 111.549 61 112.104C59.7413 112.659 58.3333 112.936 56.776 112.936ZM74.0188 113.032C72.4828 113.053 71.1068 112.733 69.8908 112.072C68.6961 111.411 67.7574 110.504 67.0748 109.352C66.4134 108.179 66.0614 106.877 66.0188 105.448C65.9974 104.019 66.3281 102.739 67.0108 101.608C67.6934 100.477 68.6428 99.5813 69.8588 98.92C71.0961 98.2587 72.4828 97.928 74.0188 97.928C75.5121 97.928 76.8561 98.248 78.0508 98.888C79.2668 99.528 80.2268 100.424 80.9308 101.576C81.6348 102.728 82.0081 104.019 82.0508 105.448C82.0721 106.835 81.7414 108.104 81.0588 109.256C80.3761 110.387 79.4161 111.293 78.1788 111.976C76.9628 112.659 75.5761 113.011 74.0188 113.032ZM74.1148 108.36C74.6908 108.36 75.1921 108.136 75.6188 107.688C76.0454 107.24 76.2588 106.717 76.2588 106.12C76.2588 105.523 76.0454 105.011 75.6188 104.584C75.1921 104.136 74.6908 103.912 74.1148 103.912C73.5388 103.912 73.0374 104.136 72.6108 104.584C72.1841 105.011 71.9708 105.523 71.9708 106.12C71.9708 106.717 72.1841 107.24 72.6108 107.688C73.0374 108.136 73.5388 108.36 74.1148 108.36ZM95.6588 113C94.8908 113 94.3148 112.787 93.9308 112.36C93.5681 111.933 93.3441 111.411 93.2588 110.792C93.1734 110.173 93.1308 109.373 93.1308 108.392C93.1308 107.133 92.9601 106.163 92.6188 105.48C92.2774 104.797 91.7228 104.456 90.9548 104.456C90.2508 104.456 89.7174 104.797 89.3548 105.48C89.0134 106.141 88.8428 107.059 88.8428 108.232C88.8428 109.363 88.8108 110.216 88.7468 110.792C88.6828 111.368 88.4694 111.88 88.1068 112.328C87.7441 112.755 87.1468 112.968 86.3148 112.968C85.0988 112.968 84.2454 112.189 83.7548 110.632C83.2641 109.053 83.0188 107.208 83.0188 105.096C83.0188 99.976 84.0961 97.416 86.2508 97.416C86.8481 97.416 87.3388 97.5653 87.7228 97.864C88.1068 98.1413 88.3734 98.5467 88.5228 99.08C88.8001 98.7813 89.2268 98.5147 89.8028 98.28C90.4001 98.0453 91.0294 97.928 91.6908 97.928C94.0374 97.928 95.7868 98.7813 96.9388 100.488C98.1121 102.195 98.6988 104.509 98.6988 107.432C98.6988 109.16 98.4748 110.525 98.0268 111.528C97.5788 112.509 96.7894 113 95.6588 113ZM106.651 118.472C105.414 118.472 104.4 118.237 103.611 117.768C102.822 117.32 102.427 116.701 102.427 115.912C102.427 115.208 102.694 114.632 103.227 114.184C103.782 113.757 104.475 113.544 105.307 113.544C105.456 113.544 105.702 113.565 106.043 113.608C106.47 113.672 106.864 113.704 107.227 113.704C108.144 113.704 108.934 113.544 109.595 113.224C110.278 112.925 110.694 112.52 110.843 112.008C110.502 112.2 110.022 112.36 109.403 112.488C108.784 112.616 108.123 112.68 107.419 112.68C105.606 112.68 104.112 112.328 102.939 111.624C101.787 110.92 100.955 110.056 100.443 109.032C99.931 107.987 99.675 106.963 99.675 105.96C99.675 104.296 100.038 102.856 100.763 101.64C101.51 100.424 102.47 99.496 103.643 98.856C104.816 98.216 106.043 97.896 107.323 97.896C107.75 97.896 108.24 97.928 108.795 97.992C109.371 98.056 109.851 98.1307 110.235 98.216C110.406 97.64 110.694 97.192 111.099 96.872C111.526 96.552 112.155 96.392 112.987 96.392C114.374 96.392 115.376 97.256 115.995 98.984C116.635 100.712 116.955 102.845 116.955 105.384C116.955 106.579 116.891 107.709 116.763 108.776C116.443 111.784 115.387 114.152 113.595 115.88C111.803 117.608 109.488 118.472 106.651 118.472ZM107.835 107.88C108.496 107.88 109.072 107.645 109.563 107.176C110.054 106.685 110.299 106.109 110.299 105.448C110.299 104.787 110.054 104.211 109.563 103.72C109.072 103.229 108.496 102.984 107.835 102.984C107.174 102.984 106.598 103.229 106.107 103.72C105.638 104.211 105.403 104.787 105.403 105.448C105.403 106.109 105.638 106.685 106.107 107.176C106.598 107.645 107.174 107.88 107.835 107.88ZM121.943 113C120.577 113 119.66 112.2 119.191 110.6C118.743 109 118.519 106.792 118.519 103.976C118.519 102.696 118.572 101.629 118.679 100.776C118.807 99.9013 119.095 99.1653 119.543 98.568C120.012 97.9493 120.727 97.64 121.687 97.64C122.284 97.64 122.807 97.7787 123.255 98.056C123.724 98.3333 124.023 98.728 124.151 99.24C124.62 98.8133 125.228 98.4933 125.975 98.28C126.721 98.0667 127.521 97.96 128.375 97.96C129.057 97.96 129.751 98.1307 130.455 98.472C131.18 98.8133 131.777 99.2827 132.247 99.88C132.737 100.456 132.983 101.085 132.983 101.768C132.983 102.451 132.737 103.059 132.247 103.592C131.777 104.104 131.148 104.36 130.359 104.36C130.103 104.36 129.857 104.328 129.623 104.264C129.409 104.2 129.217 104.136 129.047 104.072C128.62 103.901 128.279 103.816 128.023 103.816C127.191 103.816 126.455 104.147 125.815 104.808C125.196 105.448 124.887 106.28 124.887 107.304C124.887 108.435 124.844 109.373 124.759 110.12C124.673 110.867 124.417 111.539 123.991 112.136C123.564 112.712 122.881 113 121.943 113ZM139.373 113C137.709 113 136.343 112.627 135.277 111.88C134.21 111.112 133.677 110.013 133.677 108.584C133.677 107.347 134.221 106.365 135.309 105.64C136.397 104.915 137.751 104.552 139.373 104.552C139.97 104.552 140.525 104.605 141.036 104.712C141.57 104.797 141.933 104.904 142.125 105.032C142.125 104.499 141.901 104.061 141.453 103.72C141.005 103.357 140.322 103.176 139.405 103.176C138.999 103.176 138.669 103.208 138.413 103.272C138.157 103.336 137.879 103.432 137.581 103.56C137.282 103.688 137.005 103.784 136.749 103.848C136.514 103.912 136.194 103.944 135.789 103.944C135.106 103.944 134.573 103.773 134.189 103.432C133.805 103.069 133.613 102.525 133.613 101.8C133.613 100.968 133.911 100.264 134.509 99.688C135.127 99.112 135.895 98.6853 136.812 98.408C137.73 98.1093 138.647 97.96 139.565 97.96C141.378 97.96 142.893 98.3013 144.109 98.984C145.346 99.6453 146.253 100.531 146.829 101.64C147.426 102.749 147.725 103.976 147.725 105.32C147.725 106.045 147.661 106.717 147.533 107.336C147.426 107.955 147.277 108.435 147.085 108.776C147.383 109.032 147.607 109.331 147.757 109.672C147.927 110.013 148.013 110.365 148.013 110.728C148.013 111.347 147.799 111.88 147.373 112.328C146.967 112.776 146.423 113 145.741 113C145.229 113 144.813 112.925 144.493 112.776C144.173 112.627 143.831 112.392 143.469 112.072C142.935 112.392 142.349 112.627 141.709 112.776C141.09 112.925 140.311 113 139.373 113ZM140.013 109.768C140.461 109.768 140.813 109.672 141.069 109.48C141.346 109.288 141.485 109.053 141.485 108.776C141.485 108.499 141.346 108.264 141.069 108.072C140.813 107.88 140.461 107.784 140.013 107.784C139.565 107.784 139.202 107.88 138.925 108.072C138.669 108.264 138.541 108.499 138.541 108.776C138.541 109.053 138.669 109.288 138.925 109.48C139.202 109.672 139.565 109.768 140.013 109.768ZM163.947 99.144C163.947 100.253 163.425 101.011 162.379 101.416C161.334 101.8 159.905 102.003 158.091 102.024C158.07 102.557 158.059 103.421 158.059 104.616C158.059 105.832 158.145 106.696 158.315 107.208C158.422 107.571 158.582 107.805 158.795 107.912C159.03 108.019 159.371 108.093 159.819 108.136C159.969 108.157 160.129 108.189 160.299 108.232C160.491 108.253 160.705 108.285 160.939 108.328C161.43 108.435 161.814 108.701 162.091 109.128C162.369 109.533 162.507 110.056 162.507 110.696C162.507 111.421 162.134 111.987 161.387 112.392C160.641 112.797 159.617 113 158.315 113C157.121 113 155.979 112.659 154.891 111.976C153.803 111.272 153.057 110.333 152.651 109.16C152.225 107.901 152.011 105.523 152.011 102.024C150.518 101.981 149.313 101.789 148.395 101.448C147.499 101.085 147.051 100.445 147.051 99.528C147.051 98.376 147.478 97.608 148.331 97.224C149.185 96.8187 150.411 96.6053 152.011 96.584C152.075 94.8773 152.342 93.4587 152.811 92.328C153.281 91.176 154.123 90.6 155.339 90.6C156.577 90.6 157.377 91.1333 157.739 92.2C158.123 93.2667 158.294 94.728 158.251 96.584C160.193 96.5627 161.622 96.712 162.539 97.032C163.478 97.352 163.947 98.056 163.947 99.144ZM170.1 113C168.223 113 166.73 112.691 165.62 112.072C164.511 111.453 163.956 110.653 163.956 109.672C163.956 109.032 164.17 108.541 164.596 108.2C165.044 107.837 165.61 107.656 166.292 107.656C166.676 107.656 166.986 107.709 167.22 107.816C167.455 107.923 167.69 108.072 167.924 108.264C168.095 108.413 168.234 108.52 168.34 108.584C168.468 108.648 168.618 108.68 168.788 108.68C169.236 108.68 169.46 108.52 169.46 108.2C169.46 107.901 169.343 107.677 169.108 107.528C168.874 107.357 168.468 107.155 167.892 106.92C167.359 106.707 167.007 106.557 166.836 106.472C165.855 106.003 165.13 105.448 164.66 104.808C164.191 104.168 163.956 103.485 163.956 102.76C163.956 101.949 164.244 101.181 164.82 100.456C165.418 99.7093 166.25 99.112 167.316 98.664C168.404 98.1947 169.652 97.96 171.06 97.96C172.276 97.96 173.375 98.1307 174.356 98.472C175.359 98.8133 176.148 99.2827 176.724 99.88C177.3 100.456 177.588 101.096 177.588 101.8C177.588 102.461 177.375 102.963 176.948 103.304C176.543 103.645 175.988 103.816 175.284 103.816C175.007 103.816 174.783 103.795 174.612 103.752C174.463 103.688 174.26 103.592 174.004 103.464C173.855 103.379 173.695 103.304 173.524 103.24C173.375 103.176 173.204 103.144 173.012 103.144C172.842 103.144 172.692 103.208 172.564 103.336C172.436 103.443 172.372 103.581 172.372 103.752C172.372 104.072 172.607 104.307 173.076 104.456C174.314 104.861 175.306 105.373 176.052 105.992C176.82 106.611 177.204 107.464 177.204 108.552C177.204 109.939 176.554 111.027 175.252 111.816C173.972 112.605 172.255 113 170.1 113ZM183.655 90.6C182.204 90.6 181.17 91.1013 180.551 92.104C179.954 93.0853 179.655 94.3013 179.655 95.752C179.655 96.84 179.762 98.056 179.975 99.4C180.188 100.723 180.487 101.917 180.871 102.984C181.063 103.517 181.394 103.987 181.863 104.392C182.332 104.776 182.93 104.968 183.655 104.968C184.38 104.968 184.967 104.776 185.415 104.392C185.884 103.987 186.215 103.517 186.407 102.984C186.791 101.896 187.09 100.669 187.303 99.304C187.516 97.9173 187.623 96.6587 187.623 95.528C187.623 94.1627 187.303 93 186.663 92.04C186.044 91.08 185.042 90.6 183.655 90.6ZM183.623 112.84C184.519 112.84 185.298 112.509 185.959 111.848C186.62 111.187 186.951 110.408 186.951 109.512C186.951 108.616 186.62 107.837 185.959 107.176C185.298 106.515 184.519 106.184 183.623 106.184C182.727 106.184 181.948 106.515 181.287 107.176C180.626 107.837 180.295 108.616 180.295 109.512C180.295 110.408 180.626 111.187 181.287 111.848C181.948 112.509 182.727 112.84 183.623 112.84Z" fill="#9D91CD"/>
</svg>
