<svg width="505" height="188" viewBox="0 0 505 188" fill="none" xmlns="http://www.w3.org/2000/svg">
<g filter="url(#filter0_d_922_860)">
<rect x="4" width="497" height="180" rx="50" fill="#FBA964"/>
</g>
<g filter="url(#filter1_d_922_860)">
<rect x="207" width="100" height="180" fill="#9D91CD"/>
</g>
<defs>
<filter id="filter0_d_922_860" x="0" y="0" width="505" height="188" filterUnits="userSpaceOnUse" color-interpolation-filters="sRGB">
<feFlood flood-opacity="0" result="BackgroundImageFix"/>
<feColorMatrix in="SourceAlpha" type="matrix" values="0 0 0 0 0 0 0 0 0 0 0 0 0 0 0 0 0 0 127 0" result="hardAlpha"/>
<feOffset dy="4"/>
<feGaussianBlur stdDeviation="2"/>
<feComposite in2="hardAlpha" operator="out"/>
<feColorMatrix type="matrix" values="0 0 0 0 0 0 0 0 0 0 0 0 0 0 0 0 0 0 0.25 0"/>
<feBlend mode="normal" in2="BackgroundImageFix" result="effect1_dropShadow_922_860"/>
<feBlend mode="normal" in="SourceGraphic" in2="effect1_dropShadow_922_860" result="shape"/>
</filter>
<filter id="filter1_d_922_860" x="203" y="0" width="108" height="188" filterUnits="userSpaceOnUse" color-interpolation-filters="sRGB">
<feFlood flood-opacity="0" result="BackgroundImageFix"/>
<feColorMatrix in="SourceAlpha" type="matrix" values="0 0 0 0 0 0 0 0 0 0 0 0 0 0 0 0 0 0 127 0" result="hardAlpha"/>
<feOffset dy="4"/>
<feGaussianBlur stdDeviation="2"/>
<feComposite in2="hardAlpha" operator="out"/>
<feColorMatrix type="matrix" values="0 0 0 0 0 0 0 0 0 0 0 0 0 0 0 0 0 0 0.25 0"/>
<feBlend mode="normal" in2="BackgroundImageFix" result="effect1_dropShadow_922_860"/>
<feBlend mode="normal" in="SourceGraphic" in2="effect1_dropShadow_922_860" result="shape"/>
</filter>
</defs>
</svg>
